{
	"info": {
		"_postman_id": "cd903712-b9c5-40ed-b249-f9edf0654810",
		"name": "Petstore",
		"schema": "https://schema.getpostman.com/json/collection/v2.1.0/collection.json"
	},
	"item": [
		{
			"name": "Pet",
			"item": [
				{
					"name": "save - success",
					"event": [
						{
							"listen": "test",
							"script": {
								"exec": [
									"pm.test(\"Status code is 200\", function () {",
									"    pm.response.to.have.status(200);",
									"});",
									"",
									"pm.test(\"name is correct\", function () {",
									"    pm.expect(pm.response.json().name)",
									"        .to.eql(JSON.parse(pm.request.body).name);",
									"});",
									"",
									"pm.test(\"second photoUrl is correct\", function () {",
									"    pm.expect(pm.response.json().photoUrls[1])",
									"        .to.eql(JSON.parse(pm.request.body).photoUrls[1]);",
									"});",
									"",
									"pm.collectionVariables.set(\"petId\", pm.response.json().id);",
									"",
									""
								],
								"type": "text/javascript"
							}
						}
					],
					"request": {
						"method": "POST",
						"header": [],
						"body": {
							"mode": "raw",
							"raw": "{\n    \"id\": {{$randomInt}},\n    \"name\": \"{{name}}\",\n    \"photoUrls\": [\n        \"{{$randomCatsImage}}\",\n        \"{{$randomCatsImage}}\"\n    ],\n    \"status\": \"available\"\n}",
							"options": {
								"raw": {
									"language": "json"
								}
							}
						},
						"url": {
							"raw": "{{DS_baseurl}}/pet",
							"host": [
								"{{DS_baseurl}}"
							],
							"path": [
								"pet"
							]
						}
					},
					"response": []
				},
				{
					"name": "save - invalid input",
					"event": [
						{
							"listen": "test",
							"script": {
								"exec": [
									"pm.test(\"Status code is 400\", function () {",
									"    pm.response.to.have.status(400);",
									"});"
								],
								"type": "text/javascript"
							}
						}
					],
					"request": {
						"method": "POST",
						"header": [],
						"body": {
							"mode": "raw",
							"raw": "{\n    \"name\": Wouf\n}",
							"options": {
								"raw": {
									"language": "json"
								}
							}
						},
						"url": {
							"raw": "{{DS_baseurl}}/pet",
							"host": [
								"{{DS_baseurl}}"
							],
							"path": [
								"pet"
							]
						}
					},
					"response": []
				},
				{
					"name": "ﬁndByStatus - success",
					"event": [
						{
							"listen": "test",
							"script": {
								"exec": [
									"",
									"let remainingStatus = pm.collectionVariables.get(\"remainingStatus\");",
									"",
									"if (remainingStatus.length > 0)",
									"    postman.setNextRequest(\"ﬁndByStatus - success\")",
									"",
									"pm.test(\"Status code is 200\", function () {",
									"    pm.response.to.have.status(200);",
									"});",
									"",
									"pm.test(\"All pet status are available\", function () {",
									"    var jsonData = pm.response.json();",
									"    for (let pet of jsonData) {",
									"        pm.expect(pet.status).to.eql(pm.collectionVariables.get(\"status\"));",
									"    }",
									"});"
								],
								"type": "text/javascript"
							}
						},
						{
							"listen": "prerequest",
							"script": {
								"exec": [
									"",
									"let remainingStatus = pm.collectionVariables.get(\"remainingStatus\");",
									"",
									"if (remainingStatus == undefined || remainingStatus.length == 0)",
									"    remainingStatus = [\"available\", \"pending\", \"sold\"]",
									"",
									"pm.collectionVariables.set(\"status\", remainingStatus.shift());",
									"",
									"pm.collectionVariables.set(\"remainingStatus\", remainingStatus);"
								],
								"type": "text/javascript"
							}
						}
					],
					"request": {
						"method": "GET",
						"header": [],
						"url": {
							"raw": "{{baseurl}}/pet/findByStatus?status={{status}}",
							"host": [
								"{{baseurl}}"
							],
							"path": [
								"pet",
								"findByStatus"
							],
							"query": [
								{
									"key": "status",
									"value": "{{status}}"
								}
							]
						}
					},
					"response": []
				},
				{
					"name": "ﬁndByStatus - invalid status",
					"event": [
						{
							"listen": "test",
							"script": {
								"exec": [
									"pm.test(\"Status code is 400\", function () {",
									"    pm.response.to.have.status(400);",
									"});"
								],
								"type": "text/javascript"
							}
						}
					],
					"request": {
						"method": "GET",
						"header": [],
						"url": {
							"raw": "{{baseurl}}/pet/findByStatus?status=invalid",
							"host": [
								"{{baseurl}}"
							],
							"path": [
								"pet",
								"findByStatus"
							],
							"query": [
								{
									"key": "status",
									"value": "invalid"
								}
							]
						}
					},
					"response": []
				},
				{
					"name": "findById - success",
					"event": [
						{
							"listen": "test",
							"script": {
								"exec": [
									"pm.test(\"Status code is 200\", function () {",
									"    pm.response.to.have.status(200);",
									"});",
									"",
									"pm.test(\"Id in response body is the expected one\", function () {",
									"    var jsonData = pm.response.json();",
									"    pm.expect(jsonData.id).to.eql(pm.collectionVariables.get(\"petId\"));",
									"});"
								],
								"type": "text/javascript"
							}
						}
					],
					"request": {
						"method": "GET",
						"header": [],
						"url": {
							"raw": "{{baseurl}}/pet/{{petId}}",
							"host": [
								"{{baseurl}}"
							],
							"path": [
								"pet",
								"{{petId}}"
							]
						}
					},
					"response": []
				},
				{
					"name": "update - success",
					"event": [
						{
							"listen": "test",
							"script": {
								"exec": [
									"pm.test(\"Status code is 200\", function () {",
									"    pm.response.to.have.status(200);",
									"});",
									"",
									"pm.collectionVariables.set(\"name\", pm.request.body.urlencoded.get(\"name\"));",
									"pm.collectionVariables.set(\"status\", pm.request.body.urlencoded.get(\"status\"));",
									""
								],
								"type": "text/javascript"
							}
						}
					],
					"request": {
						"method": "POST",
						"header": [],
						"body": {
							"mode": "urlencoded",
							"urlencoded": [
								{
									"key": "name",
									"value": "{{$randomFirstName}}",
									"type": "default"
								},
								{
									"key": "status",
									"value": "sold",
									"type": "default"
								}
							],
							"options": {
								"raw": {
									"language": "json"
								}
							}
						},
						"url": {
							"raw": "{{baseurl}}/pet/{{petId}}",
							"host": [
								"{{baseurl}}"
							],
							"path": [
								"pet",
								"{{petId}}"
							]
						}
					},
					"response": []
				},
				{
					"name": "findById - check update",
					"event": [
						{
							"listen": "test",
							"script": {
								"exec": [
									"pm.test(\"Status code is 200\", function () {",
									"    pm.response.to.have.status(200);",
									"});",
									"",
									"pm.test(\"Id in response body is the expected one\", function () {",
									"    var jsonData = pm.response.json();",
									"    pm.expect(jsonData.id).to.eql(pm.collectionVariables.get(\"petId\"));",
									"});",
									"",
									"pm.test(\"name in response body is the expected one\", function () {",
									"    pm.expect(pm.response.json().name).to.eql(pm.collectionVariables.get(\"name\"));",
									"});",
									"",
									"pm.test(\"status in response body is the expected one\", function () {",
									"    pm.expect(pm.response.json().status).to.eql(pm.collectionVariables.get(\"status\"));",
									"});"
								],
								"type": "text/javascript"
							}
						}
					],
					"request": {
						"method": "GET",
						"header": [],
						"url": {
							"raw": "{{baseurl}}/pet/{{petId}}",
							"host": [
								"{{baseurl}}"
							],
							"path": [
								"pet",
								"{{petId}}"
							]
						}
					},
					"response": []
				},
				{
					"name": "update - success",
					"event": [
						{
							"listen": "test",
							"script": {
								"exec": [
									"pm.test(\"Status code is 200\", function () {",
									"    pm.response.to.have.status(200);",
									"});",
									"",
									"pm.test(\"name is correct\", function () {",
									"    pm.expect(pm.response.json().name)",
									"        .to.eql(JSON.parse(pm.request.body).name);",
									"});",
									"",
									"pm.test(\"photoUrls is empty\", function () {",
									"    pm.expect(pm.response.json().photoUrls.length)",
									"        .to.eql(0);",
									"});",
									""
								],
								"type": "text/javascript"
							}
						}
					],
					"request": {
						"method": "PUT",
						"header": [],
						"body": {
							"mode": "raw",
							"raw": "{\n    \"id\": {{petId}},\n    \"name\": \"{{$randomFirstName}}\"\n}",
							"options": {
								"raw": {
									"language": "json"
								}
							}
						},
						"url": {
							"raw": "{{baseurl}}/pet",
							"host": [
								"{{baseurl}}"
							],
							"path": [
								"pet"
							]
						}
					},
					"response": []
				},
				{
					"name": "update - invalid id",
					"event": [
						{
							"listen": "test",
							"script": {
								"exec": [
									"pm.test(\"Status code is 400\", function () {",
									"    pm.response.to.have.status(400);",
									"});",
									""
								],
								"type": "text/javascript"
							}
						}
					],
					"request": {
						"method": "PUT",
						"header": [],
						"body": {
							"mode": "raw",
							"raw": "{\n    \"id\": \"invalid\",\n    \"name\": \"{{$randomFirstName}}\"\n}",
							"options": {
								"raw": {
									"language": "json"
								}
							}
						},
						"url": {
							"raw": "{{baseurl}}/pet",
							"host": [
								"{{baseurl}}"
							],
							"path": [
								"pet"
							]
						}
					},
					"response": []
				},
				{
					"name": "delete - success",
					"event": [
						{
							"listen": "test",
							"script": {
								"exec": [
									"pm.test(\"Status code is 200\", function () {",
									"    pm.response.to.have.status(200);",
									"});"
								],
								"type": "text/javascript"
							}
						}
					],
					"request": {
						"method": "DELETE",
						"header": [],
						"url": {
							"raw": "{{baseurl}}/pet/{{petId}}",
							"host": [
								"{{baseurl}}"
							],
							"path": [
								"pet",
								"{{petId}}"
							]
						}
					},
					"response": []
				},
				{
					"name": "delete - id not found",
					"event": [
						{
							"listen": "test",
							"script": {
								"exec": [
									"pm.test(\"Status code is 404\", function () {",
									"    pm.response.to.have.status(404);",
									"});"
								],
								"type": "text/javascript"
							}
						}
					],
					"request": {
						"method": "DELETE",
						"header": [],
						"url": {
							"raw": "{{baseurl}}/pet/{{petId}}",
							"host": [
								"{{baseurl}}"
							],
							"path": [
								"pet",
								"{{petId}}"
							]
						}
					},
					"response": []
				},
				{
					"name": "delete - invalid id",
					"event": [
						{
							"listen": "test",
							"script": {
								"exec": [
									"pm.test(\"Status code is 400\", function () {",
									"    pm.response.to.have.status(400);",
									"});"
								],
								"type": "text/javascript"
							}
						}
					],
					"request": {
						"method": "DELETE",
						"header": [],
						"url": {
							"raw": "{{baseurl}}/pet/invalid",
							"host": [
								"{{baseurl}}"
							],
							"path": [
								"pet",
								"invalid"
							]
						}
					},
					"response": []
				},
				{
					"name": "update - id not found",
					"event": [
						{
							"listen": "test",
							"script": {
								"exec": [
									"pm.test(\"Status code is 404\", function () {",
									"    pm.response.to.have.status(404);",
									"});"
								],
								"type": "text/javascript"
							}
						}
					],
					"request": {
						"method": "POST",
						"header": [],
						"body": {
							"mode": "urlencoded",
							"urlencoded": [
								{
									"key": "name",
									"value": "{{$randomFirstName}}",
									"type": "default"
								},
								{
									"key": "status",
									"value": "\"sold\"",
									"type": "default"
								}
							],
							"options": {
								"raw": {
									"language": "json"
								}
							}
						},
						"url": {
							"raw": "{{baseurl}}/pet/{{petId}}",
							"host": [
								"{{baseurl}}"
							],
							"path": [
								"pet",
								"{{petId}}"
							]
						}
					},
					"response": []
				},
				{
					"name": "update - pet not found",
					"event": [
						{
							"listen": "test",
							"script": {
								"exec": [
									"pm.test(\"Status code is 404\", function () {",
									"    pm.response.to.have.status(404);",
									"});",
									""
								],
								"type": "text/javascript"
							}
						}
					],
					"request": {
						"method": "PUT",
						"header": [],
						"body": {
							"mode": "raw",
							"raw": "{\n    \"id\": {{petId}},\n    \"name\": \"{{$randomFirstName}}\"\n}",
							"options": {
								"raw": {
									"language": "json"
								}
							}
						},
						"url": {
							"raw": "{{baseurl}}/pet",
							"host": [
								"{{baseurl}}"
							],
							"path": [
								"pet"
							]
						}
					},
					"response": []
				}
			]
		}
	],
	"event": [
		{
			"listen": "prerequest",
			"script": {
				"type": "text/javascript",
				"exec": [
					""
				]
			}
		},
		{
			"listen": "test",
			"script": {
				"type": "text/javascript",
				"exec": [
					""
				]
			}
		}
	],
	"variable": [
		{
			"key": "petId",
			"value": ""
		},
		{
			"key": "name",
			"value": ""
		},
		{
			"key": "status",
			"value": ""
		},
		{
			"key": "remainingStatus",
			"value": ""
		}
	]
}